"",		"0x0FF9",	"Key" 
"",		"0x300B",	"SearchKey"
"",		"0x3008",	"LastMod" 
"OutlookFullName",		"0x0037",	"Subject", "0", "0x3001"
"", 		"0x3001",	"FullName"
"jobtitle",	"0x3A17",	"JobTitle", "0", "0x3A17"
"company",	"0x3A16",	"CompanyName", "0", "0x3A16"

"title",	"0x3A45",	"Title"
"last",		"0x3A11",	"LastName", "0", "0x3A11"
"middle",	"0x3A44",	"MiddleName"
"first",	"0x3A06",	"FirstName", "0", "0x3A06"
"suffix",	"0x3A05",	"Suffix"

"",		"0x8005",	"FileAs",	"3"

""	,	"0x8084",	"EMail1Name",	"3"
"email",	"0x8084",	"EMail1Address","3", "0x39FE"
"",		"0x8082",	"EMail1AddrType","3"
"",		"0x8094",	"EMail2Name",	"3"
"email2",	"0x8094",	"EMail2Address","3", "0x3003"
"",		"0x8092",	"EMail2AddrType","3"
"",		"0x80A4",	"EMail3Name",	"3"
"email3",	"0x80A4",	"EMail3Address","3"
"",		"0x80A2",	"EMail3AddrType","3"

"user1",	"0x8062",	"IMAddress",	"3"

"",		"0x3A2E",	"AssistantPhone"
"busphone",	"0x3A08",	"BusPhone", "0", "0x3A08"
"",		"0x3A1B",	"Bus2Phone"
"",		"0x3A24",	"BusFax"
"",		"0x3A02",	"CallbackPhone"
"",		"0x3A1E",	"CarPhone"
"",		"0x3A57",	"CompanyMainPhone"
"homephone",	"0x3A09",	"HomePhone", "0x3A09"
"",		"0x3A2F",	"Home2Phone"
"",		"0x3A25",	"HomeFax"
"",		"0x3A2D",	"ISDNNumber"
"mobilephone",	"0x3A1C",	"MobilePhone", "0", "0x3A1C"
"otherphone",	"0x3A1F",	"OtherPhone"
"",		"0x3A23",	"OtherFax"
"",		"0x3A21",	"PagerNumber"
"",		"0x3A1A",	"PrimaryPhone"
"",		"0x3A1D",	"RadioPhone"
"",		"0x3A2C",	"TelexNumber"
"",		"0x3A4B",	"TTYTDDPhone"
"",		"0x3A15",	"MailAddress"
"",		"0x3A27",	"MailCity"
"",		"0x3A26",	"MailCountry"
"",		"0x3A2A",	"MailPostalCode"
"",		"0x3A2B",	"MailPOBox"
"",		"0x3A28",	"MailState"
"",		"0x3A29",	"MailStreet"
"",		"0x801A",	"HomeAddress",	"3"
"",		"0x3A59",	"HomeCity"
"",		"0x3A5D",	"HomeStreet"
"",		"0x3A5C",	"HomeState"
"",		"0x3A5A",	"HomeCountry"
"",		"0x3A5E",	"HomePOBox"
"",		"0x3A5B",	"HomePostalCode"
"",		"0x801C",	"OtherAddress",	"3"
"",		"0x3A5F",	"OtherCity"
"",		"0x3A63",	"OtherStreet"
"",		"0x3A62",	"OtherState"
"",		"0x3A60",	"OtherCountry"
"",		"0x3A61",	"OtherPostalCode"
"",		"0x3A64",	"OtherPOBox"
"",		"0x801B",	"BusAddress",	"3"
"city",		"0x8046",	"BusCity", "0", "0x3A27"
"address1",	"0x8045",	"BusStreet",	"3", "0x3A29"
"state",	"0x8047",	"BusState",	"3", "0x3A28"
"country",	"0x8049",	"BusCountry",	"3", "0x3A26"
"postalcode",	"0x8048",	"BusPostalCode","3", "0x3A2A"
"",		"0x804A",	"BusPOBox",	"3"
"user4",	"0x804F",	"UserField1",	"3", "0x802D"
"user5",	"0x8050",	"UserField2",	"3", "0x802E"
"",	"0x8051",	"UserField3",	"3", "0x802F"
"",	"0x8052",	"UserField4",	"3", "0x8030"

