# video.lo - a libtool object file
# Generated by ltmain.sh - GNU libtool 1.5.24 Debian 1.5.24-1ubuntu1 (1.1220.2.456 2007/06/24 02:25:32)
#
# Please DO NOT delete this file!
# It is necessary for linking the library.

# Name of the PIC object.
